^D:\MARCIN\MILIONERZY_MARCIN2\MILIONERZY\MILIONERZY.CPP
/c /ID:\MARCIN\MILIONERZY_MARCIN2\PACKAGES\ALLEGRO.5.2.8\BUILD\NATIVE\INCLUDE\ /ID:\MARCIN\MILIONERZY_MARCIN2\PACKAGES\ALLEGRODEPS.1.13.0\BUILD\NATIVE\\INCLUDE\ /ZI /JMC /nologo /W3 /WX- /diagnostics:column /sdl /Od /D _DEBUG /D _CONSOLE /D _UNICODE /D UNICODE /Gm- /EHsc /RTC1 /MDd /GS /fp:precise /permissive- /Zc:wchar_t /Zc:forScope /Zc:inline /Fo"X64\DEBUG\\" /Fd"X64\DEBUG\VC142.PDB" /external:W3 /Gd /TP /FC D:\MARCIN\MILIONERZY_MARCIN2\MILIONERZY\MILIONERZY.CPP
^D:\MARCIN\MILIONERZY_MARCIN2\MILIONERZY\ALLEGRO.CPP
/c /ID:\MARCIN\MILIONERZY_MARCIN2\PACKAGES\ALLEGRO.5.2.8\BUILD\NATIVE\INCLUDE\ /ID:\MARCIN\MILIONERZY_MARCIN2\PACKAGES\ALLEGRODEPS.1.13.0\BUILD\NATIVE\\INCLUDE\ /ZI /JMC /nologo /W3 /WX- /diagnostics:column /sdl /Od /D _DEBUG /D _CONSOLE /D _UNICODE /D UNICODE /Gm- /EHsc /RTC1 /MDd /GS /fp:precise /permissive- /Zc:wchar_t /Zc:forScope /Zc:inline /Fo"X64\DEBUG\\" /Fd"X64\DEBUG\VC142.PDB" /external:W3 /Gd /TP /FC D:\MARCIN\MILIONERZY_MARCIN2\MILIONERZY\ALLEGRO.CPP
