^D:\MARCIN\MILIONERZY_MARCIN2\MILIONERZY\X64\DEBUG\ALLEGRO.OBJ|D:\MARCIN\MILIONERZY_MARCIN2\MILIONERZY\X64\DEBUG\MILIONERZY.OBJ
D:\MARCIN\MILIONERZY_MARCIN2\X64\DEBUG\MILIONERZY.EXE
D:\MARCIN\MILIONERZY_MARCIN2\MILIONERZY\X64\DEBUG\MILIONERZY.ILK
D:\MARCIN\MILIONERZY_MARCIN2\X64\DEBUG\MILIONERZY.PDB
